"stage"	"lang"	"date"	"time"	"dura"	"url"	"category"	"location"	"summary"	"speaker"	"description"
"cwtv"	"de"	"27"	"11:00"	"30"	"https://pretalx.c3voc.de/rc3-2021-cwtv/talk/NZ8SJT/"	"Allgemein"	"Chaos-West TV"	"Opening"	"Lilith,HonkHase"	"n/a"
"cwtv"	"de"	"27"	"12:30"	"40"	"https://pretalx.c3voc.de/rc3-2021-cwtv/talk/G3RSCF/"	"Vortrag"	"Chaos-West TV"	"Make it static!"	"avocadoom"	"['""Statische Webseiten, das hat man doch nur zu den Geburtszeiten des Internets benutzt."". Naja, nicht ganz, mittlerweile geht der Trend wieder vom klassischen Backend mit dynamischer Seitengenerierung zurück zu statischen Seiten. Ganz getreu dem Motto ""Back to Basics"" geht es in diesem Vortrag genau um dieses Thema: ""Was sind statisch generierte Webseiten? Und was fange ich damit an?""', '', 'Eine eigene Internetpräsenz zu haben ist mittlerweile keine Seltenheit mehr und wir Wesen beziehen mittlerweile einen Großteil unserer Informationen dorther. Dabei besteht die große Menge dieser Informationsquellen aus Seiten mit einem Backend, welches diese dynamisch generiert. Was auf den ersten Blick unproblematisch klingt kann gerade im Hinblick auf Wartung und Auslastung ein Problem werden. Mit Sicherheit hast du auch schon von Webseiten gehoert, die aufgrund eines veralteten CMS gekapert wurden. Aber muss das wirlich sein? Nein, denn mittlerweile ist das statische Generieren von Webseiten eine echte Alternative und nicht nur eine Sache, die Nerds vorbehalten ist. In diesem Talk erfährst du, was statische Seiten ausmacht, welche Ansätze du wählen kannst, um sie mit Inhalten zu füllen, und wie du trotzdem deinen bisherigen Workflow beibehalten kannst. Außerdem klären wir, was zur Hoelle Hydrierung mit Webseiten zu tun hat und wie du Datenverarbeitung mit einem Hybridansatz ermoeglichen kannst.', '', 'Die Vortragsfolien sind unter [make-it-static.thilo-billerbeck.com](https://make-it-static.thilo-billerbeck.com/) verfügbar.']"
"cwtv"	"de"	"27"	"16:00"	"40"	"https://pretalx.c3voc.de/rc3-2021-cwtv/talk/TUQE7S/"	"Vortrag"	"Chaos-West TV"	"Kameras stoppen!"	"kameras-stoppen.org"	"['Die Kampagne kameras-stoppen.org ist die gesellschaftspolitische Begleitung zur Klage gegen die polizeiliche Videobeobachtung im öffentlichen Raum in Köln.', '', 'Seit 2016 baut die Polizei Köln unterstützt von der Landesregierung NRW immer mehr Kameras im Stadtgebiet Köln auf, um den öffentlichen Raum zu beobachten und die Aufnahmen mindestens 14 Tage zu speichern. Im Sommer 2018 reichte ein betroffener Anwohner Klage gegen diese Videobeobachtung beim Verwaltungsgericht Köln ein.', '', 'Der juristische Weg ist in einer Demokratie jedoch nicht ausreichend, um gegen diese staatliche Beobachtung vorzugehen. Es ist wichtig eine öffentliche und breite Diskussion anzufachen, auf die damit verbundene Bedrohung der Freiheitsrechte aufmerksam zu machen und somit die öffentliche Meinung von den Nachteilen zu überzeugen. Nur so kann die staatliche Überwachung auch nachhaltig eingedämmt und zurückgedrängt werden.', '', 'Im Vortrag geht es um die Vorstellung der Kampagne sowie aktuelle Erfolge und Entwicklungen.']"
"cwtv"	"en"	"27"	"17:30"	"60"	"https://pretalx.c3voc.de/rc3-2021-cwtv/talk/JPSUKK/"	"Vortrag"	"Chaos-West TV"	"Stop general data retention in the EU – current plans for mass surveillance"	"Patrick Breyer MEP,Jesper Lund,Chloé Berthélémy,TJ McIntyre"	"[""We need to get back to basics: Let's set the default to zero mass surveillance.   "", '**Follow the debate on data retention in 2022:**   ', '*#DataRetention* | *#Vorratsdatenspeicherung* | *#Logning* | *Conservation des données*', '', 'watch & download the talk:   ', 'https://media.ccc.de/v/rc3-2021-cwtv-879-stop-general-data-rete    ', 'in deutscher Übersetzung:   ', 'https://www.youtube.com/watch?v=sgvqCEHTlj8', '', '## Key issues of the talk', '', '* Walter Van Holst: [introduction of the speakers](https://media.ccc.de/v/rc3-2021-cwtv-879-stop-general-data-rete#t=50)', '* Patrick Breyer: [What is data retention & what are the problems?](https://media.ccc.de/v/rc3-2021-cwtv-879-stop-general-data-rete#t=260)', '* TJ McIntyre: [What is the legal situation in the EU? ](https://media.ccc.de/v/rc3-2021-cwtv-879-stop-general-data-rete#t=665)', '* Jesper Lund: [What is going on at the Commission of the EU?](https://media.ccc.de/v/rc3-2021-cwtv-879-stop-general-data-rete#t=989)', '* Chloé Berthélémy on [the situation in France](https://media.ccc.de/v/rc3-2021-cwtv-879-stop-general-data-rete#t=1495)', '* Patrick Breyer with [news from the new government in Germany](https://media.ccc.de/v/rc3-2021-cwtv-879-stop-general-data-rete#t=2142)', '* TJ McIntyre on [the situation in Ireland](https://media.ccc.de/v/rc3-2021-cwtv-879-stop-general-data-rete#t=2287)', '* Jesper Lund on [Denmark](https://media.ccc.de/v/rc3-2021-cwtv-879-stop-general-data-rete#t=2501)', '* Chloé Berthélémy on [Belgium](https://media.ccc.de/v/rc3-2021-cwtv-879-stop-general-data-rete#t=3008)', '* TJ McIntyre: [How can we force governments to comply with the law?](https://media.ccc.de/v/rc3-2021-cwtv-879-stop-general-data-rete#t=3482)', '* Patrick Breyer on [dangers and options at the European Parliament and the EDPS](https://media.ccc.de/v/rc3-2021-cwtv-879-stop-general-data-rete#t=3647)', '* Chloé Berthélémy on [what citizens can do](https://media.ccc.de/v/rc3-2021-cwtv-879-stop-general-data-rete#t=3812)', '* Jesper Lund: [We need to keep the public debate going.](https://media.ccc.de/v/rc3-2021-cwtv-879-stop-general-data-rete#t=4059)', '* TJ McIntyre on [the power of civil society interest groups](https://media.ccc.de/v/rc3-2021-cwtv-879-stop-general-data-rete#t=4244)', '* Walter Van Holst with [the Q&A](https://media.ccc.de/v/rc3-2021-cwtv-879-stop-general-data-rete#t=4319)', '', 'For infos on the speakers see below.   ', '(organisational contact: dataretention@patrick-breyer.de (Friedemann))', '', '## Data retention plans in the EU and its Member States', '', 'By the End of 2021 new documents appeared in public that show how the Commission of the European Union together with various EU member states push for new general data retention obligations [1].    ', 'From an digital fundamental rights perspective this is not acceptable. Because sensitive communication and activity data from millions of law-abiding citizens would be retained for no specific purpose. Democratic societies and liberal constitutional states must not enforce blanket mass surveillance.   ', 'The European Court of Justice (ECJ) has repeatedly emphasized this and declared general data retention to be lawful only in limited exceptions. The default must be: no general data retention.', '', 'Nevertheless, from documents and the political debate the impression arises, that the Commission of the European Union and some governments of the Member States are trying to run over the rulings of the ECJ and fundamental rights.', '', 'Relevant key documents referred to in this talk:   ', '(1) 18 November 2021: CJEU PRESS RELEASE No 206/21 Advocate General’s Opinion in Joined Cases   ', 'https://curia.europa.eu/jcms/jcms/p1_3583047/en/   ', '(2) 16 June 2021: WK 7294/2021 INIT Working Paper Contribution to the Council COPEN', 'Working Party meeting of 16 June 2021   ', 'https://cdn.netzpolitik.org/wp-upload/2021/07/wk07294.en211.pdf   ', '(3) 01 December 2021: Written responses to (2) from: Denmark, Finland, Germany, Hungary, Luxembourg, Netherlands & Sweden   ', 'https://www.statewatch.org/news/2021/december/eu-data-retention-strikes-back-options-for-mass-telecoms-surveillance-under-discussion-again/   ', '', '[1] Definition   ', 'General and Indiscriminate data collection (DE: anlasslose Vorratsdatenspeicherung | F: Conservation généralisée des données de connexion) is the collection of the location and communications data of the entire population, regardless of whether they are suspected or accused of a crime.']"
"cwtv"	"de"	"27"	"20:00"	"40"	"https://pretalx.c3voc.de/rc3-2021-cwtv/talk/7UDLRY/"	"Vortrag"	"Chaos-West TV"	"Digitalisierung. In einer Pandemie. Im Gesundheitsamt!"	"Bianca Kastl"	"['Ein Erfahrungs- und Statusbericht über 15 Monate Digitalisierungsbemühungen im Bereich des Öffentlichen Gesundheitsdiensts.', '', 'Enthält:', '- agile Softwareentwicklung in einer Verwaltung', '- Hacks der Luca App', '- Impfplattformen', '- Spuren von Kontaktnachverfolgung', '- Engagement der Zivilgesellschaft', '- öffentliche digitale Infrastrukturen', '- und ganz viele Erfahrungen von digitalen Analphabetismus']"
"cwtv"	"de"	"28"	"12:30"	"40"	"https://pretalx.c3voc.de/rc3-2021-cwtv/talk/PDTM7E/"	"Vortrag"	"Chaos-West TV"	"Lets review code together - einfach mal machen"	"khaleesi,paldium"	"['Und wieder eine Sicherheitslücke veröffentlicht. Wie finden Sicherheitsforscher:innen nur immer wieder solche Fehler in Software, die doch schon seit Jahrzehnten im Einsatz ist? Und wie haben sie nur den Einstieg in diese komplexe Thematik gefunden? Eine Möglichkeit: Codereviews!   ', '                                                                                                                                                   ', 'In unserem Talk möchten wir das Thema aufgreifen und aufzeigen wie man in kleinen Gruppen einen guten Einstieg in das Thema finden kann.', '                                                                                                                                                    ', 'Die Idee zu unserem Talk entstand aus einer Diskussion über Codereviews an einem Sonntagnachmittag, aus der sich eine Reihe Fragen ergab:           ', '- Warum prüfen wir Open Source Code auf Fehler?                                                                                                       ', '- Warum wird der Einstieg als schwierig wahrgenommen?                                                                                                 ', '- Warum machen das nicht mehr Personen?                                                                                                               ', '- Wie kann man Codereviews möglichst vielen Personen näher bringen?                                                                           ', '- Und warum haben wir am Ende alle mehr davon?                                                                                                        ', '                                                                                                                                                   ', 'All diesen Fragen gehen wir in unserem Talk auf den Grund. Mit einer kleinen Codereview Gruppe haben wir bereits erste Erfahrungen gesammelt und möchten diese gerne teilen. Exemplarisch präsentieren wir unsere Vorgehensweise und vergleichen diese mit anderen Formaten.']"
"cwtv"	"en"	"28"	"16:00"	"40"	"https://pretalx.c3voc.de/rc3-2021-cwtv/talk/UGZY8B/"	"Vortrag"	"Chaos-West TV"	"Kyber and Post-Quantum Crypto - How does it work?"	"Ruben Gonzalez,Krijn Reijnders"	"['Post-Quantum Crypto is the art of inventing asymmetric cryptography that can withstand large quantum computers. This relatively young subject becomes more and more relevant as [Shor’s algorithm](https://en.wikipedia.org/wiki/Shor%27s_algorithm) would break all of today’s asymmetric cryptography once a large enough quantum computer can be build.', 'Therefore RSA, Elliptic Curve Crypto, Diffie-Hellman, DSA and friends could soon be obsolete.', ' ', 'Kyber (formerly known as New Hope) is among the first post-quantum schemes to be standardized and already found its way into products. As a lattice-based system, Kyber is fast and its security guarantees are linked to an NP-hard problem. Also, it has all the nice mathematical ingredients to confuse the hell out of you: vectors of odd-looking polynomials, algebraic rings, error terms and a security reduction to “module lattices”.', ' ', ""This talk will introduce you to the world of post-quantum cryptography by giving a hands-on tutorial on how its most prominent member - Kyber - works. We'll start with high school level mathematics and work our way up to constructing Kyber. By constructing such a toy-sized Kyber, we can learn how the system works, comprehend its design decisions and see how it is related to an NP-hard problem."", 'After that we’ll take a brief look into how PQC will change real world cryptography in the near future.']"
"cwtv"	"en"	"28"	"20:00"	"40"	"https://pretalx.c3voc.de/rc3-2021-cwtv/talk/3BFEMG/"	"Vortrag"	"Chaos-West TV"	"Listen to Your Heart: Security and Privacy of Implantable Cardio Foo"	"Christoph Saatjohann,e7p"	"['Modern implantable cardiologic devices communicate via radio frequency techniques and nearby gateways to a backend server on the internet. Those implanted devices, gateways, and servers form an ecosystem of proprietary hardware and protocols that process sensitive medical data and is often vital for patients’ health.', '', 'This talk gives an overview about the security of this ecosystem, from technical gateway aspects, via the programmer, to configure the implanted device, up to the processing of personal medical data from large cardiological device producers. Based on a real-world attacker model, we evaluated different devices and found several severe vulnerabilities. Furthermore, we could purchase a fully functional programmer for implantable cardiological devices, allowing us to re-program such devices or even induce electric shocks on untampered implanted devices.', '', 'Additionally, we sent several General Data Protection Regulation (GDPR, ger: DSGVO) inquiries to manufacturers of implantable cardiologic devices and hospitals, revealing non-conforming processes and a lack of awareness about patients’ rights and companies’ obligations. This, and the fact that many vulnerabilities are still to be found after many vulnerability disclosures in recent years, present a worrying security state of the whole ecosystem.']"
"cwtv"	"en"	"29"	"12:30"	"40"	"https://pretalx.c3voc.de/rc3-2021-cwtv/talk/7VTNK8/"	"Vortrag"	"Chaos-West TV"	"Math for hackers"	"Michael Sperber"	"[""Be honest: When you're hacking, aren't you really building a world"", 'inside a system that operates according to fixed, pedantic, boring', 'rules?  (And when the system does not operate according to those', ""rules, do you not get annoyed?)  That's secretly a form of applied"", 'mathematics!  Now, math has been around for hundreds of years and has', 'helped humanity build worlds of the mind, some of them to help', 'understand reality around us.  This is just like software, and thus', 'math can help use build better worlds inside the computer.  Forget the', 'boring math you learned in school: Enter the world of monoids and', 'abstract nonsense!  Understand how you can use it to build better', 'worlds and more useful software, and to enjoy hacking even more!']"
"cwtv"	"en"	"29"	"16:00"	"40"	"https://pretalx.c3voc.de/rc3-2021-cwtv/talk/B8VWPY/"	"Vortrag"	"Chaos-West TV"	"Union Busting -What is it and why you should care"	"DysphoricUnicorn"	"['2021 is finally coming to a close.  ', ""It's been a tumultuous year for pretty much everyone on the planet.  "", 'The ongoing global pandemic is showing people how fragile their life is and how everything can change for the worse in a really short amount of time.  ', 'In addition to that, many people were shown just how little they matter to their employers.  ', 'Being forced to work in unsafe conditions without being provided sufficient PPE or ""just"" having to be more productive than ever while the whole world seems to be burning.  ', 'Many are realizing that they do not want to go on like this and try to fight back.', '', ""This talk will be split into two main parts: Why we need unions, even if we're doing well in our jobs and how unionization is prevented from unethical employers and governments."", '', '## Why do we need unions?', ""I think it's safe to say that many people listening to this talk will be working in the tech industry.  "", 'This is an industry where we are comparatively well compensated and have decent working conditions.  ', 'Most of us were able to work from home during the pandemic and stay safe.', '', 'But that does not mean we should not fight to improve conditions.  ', 'Not just for ourselves but also those (inside and outside the industry) who are less privileged.', '', '[Polls show](https://vouchercloud.com/resources/office-worker-productivity) that people spend less than 3 hours of the average 8 hour work day being actively productive.  ', 'Still, the economy is not breaking apart, our computer systems seem about as stable as computer systems can be and new, innovative things are being invented.  ', ""So why is it normal to spend 40 hours a week not doing what you want to but instead staring unproductively at a screen because you just can't focus more than 3 hours?  "", 'Why does one have to take a substantial pay cut if they want to spend less time like this [and be at least as productive as normally](https://autonomy.work/wp-content/uploads/2021/06/ICELAND_4DW.pdf)?  ', 'This is just one of the many things that we would be able to change if we worked together.', '', 'In addition to improving our own lives, privileged people have the duty to normalize standing together in solidarity and stand together with marginalized people who are treated considerably worse.    ', 'Racism, ableism, hate against trans people and unequal pay are part of the work lives of millions of people.  ', ""This has to change and the best way to do so is to show employers that not doing anything will hurt them because they won't be able to keep their employees and have no one left who's work they can profit off."", '', '## Union busting', 'When workers started to organize, employers where quick to try and put an end to this.  ', 'Union busting was attempted at some of the largest tech companies as well as against workers in more precarious fields like food delivery.  ', 'While our work days look totally different, the tactics used to stop us from unionizing are largely the same.', '', 'Oftentimes union busting is not as obvious as firing the workers who try to start a council, but rather takes the form of more hidden ways such as lower performance reviews and attempts to create disdain between the workers.  ', 'Knowing these tactics (and how legal they are) is important if we want to fight back.']"
"cwtv"	"en"	"29"	"20:00"	"40"	"https://pretalx.c3voc.de/rc3-2021-cwtv/talk/KKWEKW/"	"Vortrag"	"Chaos-West TV"	"Optimising public transport: A data-driven bike-sharing study in Marburg"	"Martin Lellep"	"['I started collecting Nextbike data in Marburg many months back in order to solve my personal issue of facing empty Nextbike stations in Marburg. After collecting more than 1,000,000 data points, I turned towards the analysis to figure out which stations in Marburg to avoid when desperately needing a bike.', '', 'After finding the data-driven solution to that question, I expanded my study to not only answer questions for Nextbike users but also from the perspective of the city council to make the lives of all of us easier, healthier and eco-friendlier. After those statistical statements, I conclude my study with a more precise machine-learning based prediction of parked bikes to motivate data-driven optimisations in public transport.']"
"cwtv"	"de"	"30"	"14:30"	"90"	"https://pretalx.c3voc.de/rc3-2021-cwtv/talk/Y8SZM7/"	"Allgemein"	"Chaos-West TV"	"40 Years of CCC: The Birthday Gala"	"c3newsshow"	"n/a"
"cwtv"	"en"	"30"	"18:00"	"60"	"https://pretalx.c3voc.de/rc3-2021-cwtv/talk/9DYZAF/"	"Allgemein"	"Chaos-West TV"	"Infrastructure Review"	"c3newsshow,ysf"	"n/a"
"cwtv"	"de"	"30"	"19:00"	"30"	"https://pretalx.c3voc.de/rc3-2021-cwtv/talk/8YBT9K/"	"Allgemein"	"Chaos-West TV"	"Closing"	"Lilith,HonkHase"	"n/a"
