"stage"	"lang"	"date"	"time"	"dura"	"url"	"category"	"location"	"summary"	"speaker"	"description"
"gehacktes-from-hell"	"en"	"27"	"17:30"	"120"	"https://pretalx.c3voc.de/rc3-2021-gehacktes-from-hell/talk/FUUQ8S/"	"DJ Set lang"	"Bierscheune"	"Naroma"	"Naroma"	"n/a"
"gehacktes-from-hell"	"de"	"27"	"20:00"	"60"	"https://pretalx.c3voc.de/rc3-2021-gehacktes-from-hell/talk/UBZ3ED/"	"Panel"	"Bierscheune"	"Panel: Stadt, Land, Digitalisierung - Ein Gesellschaftsspiel"	"Carina Haupt,Marco Beckendorf,Martin Vietz,Frederik Fischer,Janosch"	"['Mit Diskutieren werden:', '- Martin Vietz: SeminarHotel Alte Hölle, Politischer Aktivist und Hacker ', '- Marco Beckendorf: Amtierender Bürgermeister der Gemeinde Wiesenburg Mark', '- Janosch Dietrich: Smart Village e.V. / Coconat', '- Frederik Fischer: KoDorf / Neulandia', '', 'Moderation: Carina Haupt: Forscherin am Deutschen Institut für Luft und Raumfahrt, SeminarHotel Alte Hölle']"
"gehacktes-from-hell"	"de"	"28"	"16:00"	"30"	"https://pretalx.c3voc.de/rc3-2021-gehacktes-from-hell/talk/DTKTFF/"	"Talk"	"Bierscheune"	"Klimawandel, Weidemanagement und CO2"	"Daniel Diehl,Svenja"	"['Auf den 15 Hektar Weideland der alten Schäferei Arensnest bauen wir die Böden mit ganzheitlichem Weidemanagement, Agroforst und Windschutzhecken wieder auf. Wir binden CO2 aus der Athmosphäre als Humus im Boden und bringen somit Klimaschutz, Tierwohl und Artenvielfalt zusammen. Gemeinsam mit Schüler*innen und Studierenden untersuchen wir die Veränderungen der Humusgehalte auf unseren Flächen und erforschen exemplarisch Kohlenstoffkreisläufe in Landwirtschaft und Ernährung: Wie schaffen wir gesunde Böden, speichern Kohlenstoff, retten das Klima, und fördern gleichzeit die Artenvielfalt und werden auch noch alle satt? Wir erkunden Lebensräume von Pflanzen und Tieren und lernen die Folgen von Veränderungen in der Landnutzungen zu bewerten. Was passiert wenn wir Bäume in die offene Landschaft integrieren und was passiert wenn ein aufgezehrter Acker unter Grünland sich erholt? Wie verbinden wir Klima- und Artenschutz?']"
"gehacktes-from-hell"	"en"	"28"	"17:00"	"30"	"https://pretalx.c3voc.de/rc3-2021-gehacktes-from-hell/talk/LYMR3N/"	"Talk"	"Bierscheune"	"The Carbon Sink Solution(s)"	"Hans-Peter Schmidt"	"n/a"
"gehacktes-from-hell"	"de"	"28"	"18:00"	"60"	"https://pretalx.c3voc.de/rc3-2021-gehacktes-from-hell/talk/HTGZN3/"	"Talk / Panel"	"Bierscheune"	"Planologie-Podcast live"	"Laura Bornemann,Sebastian Gerloff"	"['Planologie ist ein unregelmäßig erscheinender Podcast von und mit uns, Laura Bornemann und Sebastian Gerloff, zu Themen aus den Bereichen (Stadt-)Raum, Technik und Gesellschaft. Wir laden uns Expert:innen zu Themen ein, die uns persönlich interessieren um dieses Wissen sowohl Stadtplaner:innen als auch interessierten Nicht-Stadtplaner:innen zugänglich zu machen.', '', 'Diesmal ist bei uns Ariane Sept zu Gast. Sie ist Forscherin am Leibniz-Institut für Raumbezogene Sozialforschung. Von ihr stammt das Zitat „Den kleinen Städten gehört die Zukunft“.', 'Ariane Sept forscht v.a. zum Thema Definition des (ländlichen) Raumes, Digitalisierung auf dem Land und „Entschleunigung in Klein- und Mittelstädten. Cittaslow als soziale Innovation in der Stadtentwicklung“. ', 'Mit ihr wollen wir darüber sprechen, was eigentlich der ländliche Raum und ""Cittaslow"" sind, wie sich der ländliche Raum in Brandenburg sozial/wirtschaftlich entwickelt, welche sozialen und technischen Innovationen hier stattfinden, wie sich hier Menschen organisieren und was Städte aus dem Prinzip der ""Slow""-Stadt lernen können.']"
"gehacktes-from-hell"	"de"	"28"	"19:30"	"120"	"https://pretalx.c3voc.de/rc3-2021-gehacktes-from-hell/talk/7NXUJT/"	"DJ Set lang"	"Bierscheune"	"Eigenklang live"	"Kollektiv Eigenklang"	"['The performance collective eigenklang wants to explore the unlimited possibilities of improvised and interactive live producing. By using their magic tricks they manipulate your senses and create psychedelic Soundscapes of organic, electronic and human sounds between your ears.', '', 'Using binaural microphones they are able to create multi layered soundscapes which are forming an artificial sound reality inside your ears. Each individual of the participating group feels connected to each other based on the universal language of sounds. It is a perfect exercise for equal status between everybody, intimacy and non-verbal communication through music. ', '', 'In the past 4 years the collective sailed through experimental ambient oceans, beat-heavy rap valleys, dub forests and technoid mountains, somewhere between radio play and live set, party and participation, tension and relaxation.', '', 'The listeners at home can enjoy the 360° soundexperience by listening to it with headphones.']"
"gehacktes-from-hell"	"de"	"28"	"22:00"	"240"	"https://pretalx.c3voc.de/rc3-2021-gehacktes-from-hell/talk/XE87ZS/"	"Talk"	"Bierscheune"	"C3 Teleshop"	"n/a"	"['Am 28.12 ist es wieder soweit: Schalten Sie ein, tun Sie Gutes!', '', 'Exklusiv für Sie stellen die fachkundigen Moderator:innen DJ Arnold und Karin erneut eine einzigartige Produktpalette vor und können schon jetzt versprechen: Jedes einzelne Produkt wird Ihr Leben bereichern! Zögern Sie nicht, rufen Sie an unter 0221 596197467 um sich von der herausragenden Qualität der Produkte zu überzeugen. Unabhängige Expert:innen werden diese zudem in der Sendung überprüfen und bestätigen. ', '', '50% des Erlöses gehen an Grupa Granica, weitere 25% jeweils an die Betreibenden des Studios, die gemeinnützigen Vereine Gängeviertel e.V. und Motorschiff Stubnitz e.V. Lassen Sie sich diese einzigartige Möglichkeit altruistischen Konsums nicht entgehen!']"
"gehacktes-from-hell"	"de"	"29"	"14:30"	"30"	"https://pretalx.c3voc.de/rc3-2021-gehacktes-from-hell/talk/BMG7WR/"	"Talk"	"Bierscheune"	"18 Jahre Freifunk als Genossenschaft im Thüringer Land"	"Thomas Hühn"	"n/a"
"gehacktes-from-hell"	"de"	"29"	"15:30"	"60"	"https://pretalx.c3voc.de/rc3-2021-gehacktes-from-hell/talk/GQ8T3V/"	"Talk / Panel"	"Bierscheune"	"Die Zukunft dem Zufall überlassen"	"Wolfgang Scheffler"	"['Wie kann die grösstmögliche Zufriedenheit aller BürgerInnen erreicht werden ? Durch Zufallsauswahl wird eine repräsentative Miniaturgesellschaft gebildet. Bei Gruppengrössen von je 25 Personen  können alle Elemente eingesetzt werden, die für ausgewogene Entscheidungen notwendig sind.', 'Das sind: - Fundierte Information über alle wesentlichen Fakten zum Thema und ein intensiver Austausch auf Augenhöhe zwischen allen TeilnehmerInnen vor dem Hintergrund ihrer persönlichen Lebensumstände.', 'So kommen Lösungen zustande, mit denen dann auch alle Leben können. Das ist dann echte Demokratie, alle Details zum Prozess und wie wir ihn selbst in die Hand nehmen können erfahren wir im Vortrag.']"
"gehacktes-from-hell"	"de"	"29"	"17:00"	"60"	"https://pretalx.c3voc.de/rc3-2021-gehacktes-from-hell/talk/PQQ9NT/"	"Talk / Panel"	"Bierscheune"	"Gemeinwohl-orientierte Digitalisierung und der Verstehbahnhof Fuerstenberg"	"daniel domscheit-berg"	"n/a"
"gehacktes-from-hell"	"de"	"29"	"18:30"	"30"	"https://pretalx.c3voc.de/rc3-2021-gehacktes-from-hell/talk/VFDH9W/"	"Talk"	"Bierscheune"	"Globale Impfungerechtigkeit und Patentrechte"	"pau"	"['Mit der schnellen Entwicklung wirksamer Impfstoffe hat die Welt bewiesen, dass gezielte öffentliche Förderung von Forschung extrem effizient sein kann. Ein Erfolg, der uns anspornen muss, diese Impfstoffe auch bestmöglich zu nutzen - indem wir sie für ALLE Menschen auf dem Planeten zugänglich machen. Vorschläge für die konkrete politische Umsetzung wurden mit den TRIPS-Waiver oder C-TAP gemacht. ', ' ', 'Als Informatiker:innen erleben wir jeden Tag, wie wichtig ein freier Austausch von Wissen ist. Der Open-Source Gedanke beflügelt seit Jahrzenten die Digitalisierung und führt dazu, dass Code verbessert und an die Bedürfnisse der Nutzenden angepasst werden kann. Durch die Verfügbarkeit des Quellcodes kann auf bereits vorhandene Arbeit anderer aufgebaut und diese weiter entwickelt werden. Zur Produktion von Impfstoffen sehen wir entscheidende Parallelen!', ' ', 'Momentan werden Impfstoffe hauptsächlich für Industrienationen entwickelt und erst später in anderen Ländern eingesetzt. Das passiert unabhängig davon, ob sie an die dortigen Bedingungen angepasst sind oder nicht. Am Beispiel der Rotaviren zeige ich eindrücklich, dass das problematisch ist.', 'Da Patente oft essentielle und bizzare Dinge abdecken - etwa grundlegende Herstellungstechnologien oder gar die Anzahl von Impfdosen in einer Ampulle - ist es fast unmöglich einen an andere Voraussetzungen angepassten Impfstoff für eine Krankheit zu entwickeln, für die es bereits einen Impfstoff gibt. Durch das Öffnen der Impfstoffrezepte - letztlich der Quellcode der Impfstoffe - könnten Forschende auf vorhandenen Impfstoffrezepten aufbauen und sie an die regionalen Bedürfnisse anpassen. ', ' ', 'Es ist wichtig, dass auch wir als Informatiker:innen und Ingenieur:innen Stellung beziehen denn wir wissen aus vielen anderen politischen Debatten, dass Gesetze zum geistigen Eigentum oft im Interesse Weniger und gegen die Interessen Vieler angewendet werden. Im Kontext der Pandemie ist dies eine der größten sozialen Fragen der Gegenwart. Eine faire Verteilung ist nur möglich, wenn Impfstoffe nicht weiter künstlich verknappt werden und das Wissen über Ihre Produktion als öffentliches Gut zur Verfügung steht.']"
"gehacktes-from-hell"	"de"	"29"	"20:30"	"240"	"https://pretalx.c3voc.de/rc3-2021-gehacktes-from-hell/talk/JUZXPD/"	"DJ Set lang"	"Bierscheune"	"eigenklang Liveloop-Impro / DJ / Performance b2b2b with Malauke & Johann Schlaufe & Live Visuals by Béat Titude"	"Kollektiv Eigenklang,Malauke & Johann Schlaufe & Béa Titude / kollektiv-eigenklang"	"['Malauke is mixing a various global salad of genres such as; spicy Cumbia, sour Balkan Beats, smooth Jazz and sweet Dub for dessert. This is no rave-fastfood! The receipt tastes more organic, instrumental and human with a salty pinch of circus and nostalgie. You can dance your ass off, sing a long or chill at the bar and chat about the crazy selection of DJ Malauke. https://hearthis.at/malauke/', '', 'Béa Titude is not a dj. He is an artist who loves to experiment live with his Loopstation; sound-objects and light-projection while mixing a slowed down psychedelic selection between Ambient, Eigenklang-Field-Recordings and Downbeats all at the same time! No wonder he often invites other artists or the audience to join the game!', 'https://beatrixe.space/audio/', '', 'Johann Schlaufe Before going deeply into producing organic music live with his voice, a loopstation and many toys he was Djing on birthdays, raves, in bars, clubs, anarchistic offspaces, weddings and festivals. He loves to improvise with the setting and the audience, with an always surprising live-show connecting genres from different ages and countries mixed with electronic Beats, Breaks & Bass. A journey through different tempos and moods from psychedelic Krautrock-Edits to Digital Cumbia heading to an energetic Dubstep-Jungle-Climax and landing with Dreamy Classics on Ambient-Soundscapes. Or something completely different^^', 'https://hearthis.at/johannschlaufe (Live & DJ-Sets)', 'https://soundcloud.com/schlaufe ', 'https://schlaufe.bandcamp.com/ (produced songs)']"
"gehacktes-from-hell"	"de"	"30"	"00:30"	"120"	"https://pretalx.c3voc.de/rc3-2021-gehacktes-from-hell/talk/UGXT8N/"	"DJ Set lang"	"Bierscheune"	"der Warst"	"Simolch der Warst"	"['Jaa, so ein schön entspannt verzworbeltes ""Laborset"". Ich stells mir momentan eher verspult spacig vor, aber keine Ahnung, wie das dann wirklich wird. Zjörlopälch!']"
