<?xml version="1.0" encoding="UTF-8" standalone="no"?>
<svg
   xmlns:dc="http://purl.org/dc/elements/1.1/"
   xmlns:cc="http://creativecommons.org/ns#"
   xmlns:rdf="http://www.w3.org/1999/02/22-rdf-syntax-ns#"
   xmlns:svg="http://www.w3.org/2000/svg"
   xmlns="http://www.w3.org/2000/svg"
   xmlns:sodipodi="http://sodipodi.sourceforge.net/DTD/sodipodi-0.dtd"
   xmlns:inkscape="http://www.inkscape.org/namespaces/inkscape"
   width="128.26511mm"
   height="80.924454mm"
   viewBox="0 0 128.26511 80.924454"
   version="1.1"
   id="svg1351"
   inkscape:version="1.0.2-2 (e86c870879, 2021-01-15)"
   sodipodi:docname="SharkHappyWave.svg">
  <defs
     id="defs1345" />
  <sodipodi:namedview
     id="base"
     pagecolor="#ffffff"
     bordercolor="#666666"
     borderopacity="1.0"
     inkscape:pageopacity="0.0"
     inkscape:pageshadow="2"
     inkscape:zoom="0.35"
     inkscape:cx="2042.3908"
     inkscape:cy="1152.9281"
     inkscape:document-units="mm"
     inkscape:current-layer="layer1"
     inkscape:document-rotation="0"
     showgrid="false"
     fit-margin-top="0"
     fit-margin-left="0"
     fit-margin-right="0"
     fit-margin-bottom="0"
     inkscape:window-width="3840"
     inkscape:window-height="2081"
     inkscape:window-x="-9"
     inkscape:window-y="-9"
     inkscape:window-maximized="1" />
  <metadata
     id="metadata1348">
    <rdf:RDF>
      <cc:Work
         rdf:about="">
        <dc:format>image/svg+xml</dc:format>
        <dc:type
           rdf:resource="http://purl.org/dc/dcmitype/StillImage" />
        <dc:title></dc:title>
      </cc:Work>
    </rdf:RDF>
  </metadata>
  <g
     inkscape:label="Ebene 1"
     inkscape:groupmode="layer"
     id="layer1"
     transform="translate(434.54922,156.8789)">
    <g
       id="g227"
       transform="matrix(0.26458333,0,0,0.26458333,-458.4659,-275.74661)">
      <g
         id="g133">
        <path
           fill="#3c6677"
           d="m 275.32,463.06 c 9.18,13.66 18.36,27.31 27.55,40.96 1.54,2.3 3.12,4.63 4.93,6.82 1.94,2.35 8.91,12.49 11.64,14.31 5.74,3.85 8.4,-2.29 15.67,-1.07 26.38,4.42 76.97,9.44 84.39,-14.86 3.07,-10.08 -18.98,-22.63 -29.19,-28.04 -12.25,-6.49 -25.15,-12.21 -38.51,-17.06 -15.19,-5.51 -30.97,-9.91 -47.05,-13.07 -9.12,-1.79 -19.27,-3.09 -27,0.45 -2.31,1.07 -4.38,2.66 -4.85,4.75 -0.02,0.08 -0.03,0.16 -0.05,0.25 -0.36,2.22 1.08,4.49 2.47,6.56 z"
           id="path129" />
        <path
           opacity="0.46"
           fill="#294068"
           d="m 385.54,488.21 c -33.91,-14.04 -65.71,-27.35 -101.06,-33.15 31.31,-1.45 76.43,16.13 101.06,33.15 z"
           id="path131" />
      </g>
      <path
         fill="#3c6677"
         d="m 515.22,617.69 c 4.93,-0.52 28.49,-3.23 48.96,-17.22 9.23,-6.31 11.58,-10.54 10.88,-13.63 -1.04,-4.57 -6.04,-6.91 -10.5,-8.35 -18.93,-6.11 -39.29,-8.16 -57.03,-17.16 -11.34,-5.75 -21.15,-14.12 -32.19,-20.41 -11.05,-6.29 -24.28,-10.49 -36.45,-6.82 -7.34,2.21 -13.58,7.07 -19.24,12.25 -5,4.58 -8.25,9.7 -9.88,15.2 -3.73,12.57 1.64,23.64 2.59,25.49 1.83,3.56 7.31,12.55 33.19,21.64 11.98,4.21 36.46,12.49 69.67,9.01 z"
         id="path135" />
      <path
         fill="#c2b0ac"
         d="m 544.43,581.51 c 0,0 -19.29,-14.2 -0.81,-51.37 -11.96,-35.41 -135.38,-20.09 -105.81,17.07 29.58,37.16 106.62,34.3 106.62,34.3 z"
         id="path137" />
      <path
         fill="#e1bcb3"
         d="m 456.85,519.55 c 2.09,0.29 69.68,2.83 53.92,60.87 -15.76,58.04 -53.92,-60.87 -53.92,-60.87 z"
         id="path139" />
      <g
         id="g173">
        <path
           fill="#eeeef3"
           d="m 546.11,531.26 -2.64,8.45 c -1.07,3.43 -5.82,3.7 -7.27,0.41 l -3.74,-8.5 z"
           id="path141" />
        <path
           fill="#eeeef3"
           d="m 536.39,531.04 -4.02,9.37 c -1.26,2.95 -5.35,3.21 -6.97,0.44 l -5.5,-9.38 z"
           id="path143" />
        <path
           fill="#eeeef3"
           d="m 524.39,534.11 -3.89,6.86 c -1.34,2.37 -4.84,2.09 -5.79,-0.46 l -2.92,-7.84 z"
           id="path145" />
        <path
           fill="#eeeef3"
           d="m 514.05,532.91 -3.98,7.02 c -1.31,2.3 -4.7,2.03 -5.63,-0.45 l -2.99,-8.02 z"
           id="path147" />
        <path
           fill="#eeeef3"
           d="m 506,531.99 -5.26,6.92 c -1.45,1.91 -4.48,1.25 -5.01,-1.09 l -2.03,-8.95 z"
           id="path149" />
        <path
           fill="#eeeef3"
           d="m 497.56,530.78 -4.75,6.24 c -1.66,2.18 -5.11,1.43 -5.71,-1.24 l -1.84,-8.12 z"
           id="path151" />
        <path
           fill="#eeeef3"
           d="m 489.77,527.91 -5.67,7.45 c -1.29,1.7 -3.98,1.12 -4.46,-0.97 l -2.17,-9.6 z"
           id="path153" />
        <g
           id="g169">
          <path
             fill="#eeeef3"
             d="m 469.09,550.38 7.81,-4.15 c 3.17,-1.69 6.74,1.47 5.46,4.82 l -3.32,8.67 z"
             id="path155" />
          <path
             fill="#eeeef3"
             d="m 475.86,559.88 8.85,-5.07 c 2.79,-1.6 6.2,0.66 5.83,3.85 l -1.25,10.8 z"
             id="path157" />
          <path
             fill="#eeeef3"
             d="m 488.68,566.98 6.02,-5.09 c 2.08,-1.76 5.26,-0.29 5.27,2.43 l 0.04,8.37 z"
             id="path159" />
          <path
             fill="#eeeef3"
             d="m 498.52,571.81 5.76,-5.66 c 1.89,-1.85 5.08,-0.66 5.29,1.98 l 0.67,8.54 z"
             id="path161" />
          <path
             fill="#eeeef3"
             d="m 509.02,576.64 5.25,-6.93 c 1.45,-1.92 4.48,-1.26 5.01,1.08 l 2.05,8.95 z"
             id="path163" />
          <path
             fill="#eeeef3"
             d="m 520.16,579.75 3.67,-6.93 c 1.28,-2.42 4.81,-2.24 5.84,0.3 l 3.13,7.72 z"
             id="path165" />
          <path
             fill="#eeeef3"
             d="m 529.47,581.73 3.66,-8.61 c 0.84,-1.97 3.59,-2.06 4.56,-0.16 l 4.47,8.77 z"
             id="path167" />
        </g>
        <path
           fill="#eeeef3"
           d="m 556.53,529.67 -2.64,8.45 c -1.07,3.43 -5.82,3.7 -7.27,0.41 l -3.74,-8.5 z"
           id="path171" />
      </g>
      <path
         fill="#3c6677"
         d="m 155.3,630.17 9.67,18.35 c 6.23,-3.06 15.54,-7.34 27.17,-11.56 30.57,-11.06 55.82,-13.91 67.31,-15.07 75.06,-7.59 127.93,-0.59 190.83,-11.44 22.03,-3.8 55.11,-11.48 94.54,-28.96 -12.49,0.93 -52.83,-10.2 -64.72,-24.99 -16.55,-20.6 -12.55,-31.99 -4.04,-30.06 25.45,5.77 66.29,-4.4 84.76,-9.72 2.78,-10.8 4.15,-21.02 4.7,-30.1 1.23,-20.35 -16.9,-36.58 -37.04,-33.39 -38.93,6.18 -84.77,16.65 -134.47,34.61 -9.91,3.58 -19.97,7.46 -30.15,11.65 C 268.08,539 198.94,591.32 155.3,630.17 Z"
         id="path175" />
      <path
         fill="#e3e3e2"
         d="m 463.63,526.05 c -14.55,9.53 -21.82,14.29 -31.24,19.59 -35.82,20.13 -67.94,29.11 -92.48,35.8 -18.67,5.09 -52.92,13.6 -80.55,22.37 -4.79,1.52 -14.51,4.67 -25.88,11.47 -9.65,5.77 -16.77,10.94 -21.19,15.19 6.76,-1.79 17.49,-3.46 30.67,-5.77 62.88,-11.05 85.26,1.86 153.73,-3.52 41.92,-3.29 71.11,-11.09 80.05,-13.58 28.99,-8.08 52.17,-18.18 68.28,-26.16 -12.68,-0.75 -52.21,-10.44 -63.39,-23.87 -16.92,-20.3 -14.06,-32.19 -5.55,-30.26 0.51,0.12 0.89,0.18 0.98,0.21 67.14,18.47 81.87,2.18 81.87,2.18 2.34,-2.59 3.7,-8.4 6.43,-20.01 3.97,-16.9 2.19,-24.38 0.35,-28.87 -1.27,-3.1 -2.21,-5.23 -4.47,-6.71 -6.96,-4.55 -19.3,3.75 -26.1,8.2 -23.39,15.31 -48.14,28.44 -71.51,43.74 z"
         id="path177" />
      <g
         id="g185">
        <ellipse
           transform="matrix(0.9474,-0.3199,0.3199,0.9474,-135.7288,176.1171)"
           fill="#0f0f0f"
           cx="468.17001"
           cy="501.16"
           rx="13.86"
           ry="9"
           id="ellipse179" />
        <path
           fill="#891815"
           d="m 465.37,509.42 c -4.01,0 -7.33,-1.65 -8.3,-4.51 -0.68,-2 -0.13,-4.27 1.54,-6.39 1.63,-2.05 4.13,-3.73 7.06,-4.72 6.11,-2.06 12.2,-0.44 13.57,3.62 1.37,4.06 -2.49,9.04 -8.6,11.1 -1.79,0.61 -3.59,0.9 -5.27,0.9 z m 5.64,-15.55 c -1.58,0 -3.3,0.28 -5.02,0.86 -2.75,0.93 -5.1,2.49 -6.61,4.4 -1.46,1.85 -1.95,3.79 -1.38,5.47 v 0 c 1.2,3.55 6.74,4.89 12.33,3.01 5.6,-1.89 9.19,-6.32 7.99,-9.87 -0.82,-2.47 -3.73,-3.87 -7.31,-3.87 z"
           id="path181" />
        <path
           fill="#f5f3ff"
           d="m 461.4,500.62 c 0.4,1.2 2.23,1.67 4.08,1.04 1.85,-0.63 3.02,-2.1 2.61,-3.3 -0.41,-1.2 -2.23,-1.67 -4.08,-1.04 -1.85,0.63 -3.02,2.1 -2.61,3.3 z"
           id="path183" />
      </g>
      <path
         opacity="0.46"
         fill="#294068"
         d="m 394.01,488.72 c -13.28,5.42 -33.14,16.53 -47.73,25.07 70.79,-36.62 192.99,-59.56 192.99,-59.56 -45.07,4.97 -79.88,10.86 -145.26,34.49 z"
         id="path187" />
      <g
         id="g193">
        <path
           fill="#3c6677"
           d="m 361.62,682.64 c 2.51,2.23 5.73,2.07 8.84,0.88 2.13,-0.81 4.22,-2.1 5.99,-3.41 11.96,-8.91 23.46,-18.67 32.54,-30.62 9.09,-11.95 15.7,-26.27 16.92,-41.64 0.45,-5.58 9.07,-61.19 8.25,-72.72 -0.52,-7.39 -16.88,6.01 -23.18,5.51 -6.3,-0.51 -13.13,1.04 -19.84,3.35 -6.23,2.15 -12.44,4.89 -17.04,9.65 -7.61,7.88 -9.55,20.01 -9,31.35 0.18,3.75 0.59,7.48 1.06,11.22 0.95,7.58 2.14,15.15 2.15,22.74 0.02,17.73 -6.37,34.48 -9.05,51.88 -0.63,4.1 -0.78,9.01 2.36,11.81 z"
           id="path189" />
        <path
           opacity="0.46"
           fill="#294068"
           d="m 417.87,569.88 c 8.66,28.01 -1.19,75.8 -38.89,100.91 10.56,-9.98 20.34,-21.67 26.72,-34.58 11.04,-22.17 14.57,-47.52 12.17,-66.33 z"
           id="path191" />
      </g>
      <path
         opacity="0.28"
         fill="#d3d5de"
         d="m 468.47,548.78 c 11.64,21.58 34.62,30.93 58.65,35.6 -29.3,0.66 -53.6,-17.14 -58.65,-35.6 z"
         id="path195" />
      <path
         opacity="0.46"
         fill="#294068"
         d="m 313.11,532.13 c -9.84,6.66 -19.81,13.03 -29.76,19.4 l -29.89,19.04 c -9.93,6.37 -19.84,12.77 -29.58,19.4 -4.87,3.32 -9.72,6.66 -14.42,10.21 -4.73,3.51 -9.34,7.17 -13.63,11.28 3.47,-4.84 7.73,-9.08 12.07,-13.15 4.4,-4.02 8.97,-7.86 13.68,-11.49 9.41,-7.29 19.21,-14.02 29.2,-20.43 10,-6.4 20.2,-12.45 30.57,-18.2 10.4,-5.71 20.92,-11.21 31.76,-16.06 z"
         id="path197" />
      <path
         fill="#294068"
         d="M 117.83,755.12"
         id="path199" />
      <path
         opacity="0.28"
         d="m 425.33,498.48 c -0.25,2.75 0.11,5.98 0.84,9.25 0.75,3.28 1.89,6.62 3.32,9.8 1.43,3.18 3.17,6.2 5.09,8.83 1.92,2.62 4.04,4.88 6.19,6.31 -1.84,-2.67 -3.51,-5.26 -5.06,-7.95 -1.54,-2.68 -2.95,-5.44 -4.24,-8.27 -1.28,-2.83 -2.43,-5.74 -3.44,-8.71 -1.02,-3 -1.88,-6.04 -2.7,-9.26 z"
         id="path201" />
      <path
         opacity="0.28"
         d="m 420.13,505.2 c -0.25,2.75 0.11,5.98 0.84,9.25 0.75,3.28 1.89,6.62 3.32,9.8 1.43,3.18 3.17,6.2 5.09,8.83 1.92,2.62 4.04,4.88 6.19,6.31 -1.84,-2.67 -3.51,-5.26 -5.06,-7.95 -1.54,-2.68 -2.95,-5.44 -4.24,-8.27 -1.28,-2.83 -2.43,-5.74 -3.44,-8.71 -1.01,-3 -1.87,-6.04 -2.7,-9.26 z"
         id="path203" />
      <path
         opacity="0.28"
         d="m 415.19,511.04 c -0.25,2.75 0.11,5.98 0.84,9.25 0.75,3.28 1.89,6.62 3.32,9.8 1.43,3.18 3.17,6.2 5.09,8.83 1.92,2.62 4.04,4.88 6.19,6.31 -1.84,-2.67 -3.51,-5.26 -5.06,-7.95 -1.54,-2.68 -2.95,-5.44 -4.24,-8.27 -1.28,-2.83 -2.43,-5.74 -3.44,-8.71 -1.01,-3 -1.87,-6.04 -2.7,-9.26 z"
         id="path205" />
      <path
         opacity="0.28"
         d="m 410.49,516.98 c -0.25,2.76 0.11,5.98 0.84,9.25 0.75,3.28 1.89,6.62 3.32,9.8 1.43,3.18 3.17,6.2 5.09,8.83 1.92,2.62 4.04,4.88 6.19,6.31 -1.84,-2.67 -3.51,-5.26 -5.06,-7.95 -1.54,-2.68 -2.95,-5.44 -4.24,-8.27 -1.28,-2.83 -2.43,-5.74 -3.44,-8.71 -1.02,-3 -1.88,-6.04 -2.7,-9.26 z"
         id="path207" />
      <path
         opacity="0.28"
         d="m 406.54,523.13 c -0.25,2.75 0.11,5.98 0.84,9.25 0.75,3.28 1.89,6.62 3.32,9.8 1.43,3.18 3.17,6.2 5.09,8.83 1.92,2.62 4.04,4.88 6.19,6.31 -1.84,-2.67 -3.51,-5.26 -5.06,-7.95 -1.54,-2.68 -2.95,-5.44 -4.24,-8.27 -1.28,-2.83 -2.43,-5.74 -3.44,-8.71 -1.01,-3 -1.87,-6.03 -2.7,-9.26 z"
         id="path209" />
      <path
         opacity="0.28"
         d="m 401.4,529.46 c -0.25,2.76 0.11,5.98 0.84,9.25 0.75,3.28 1.89,6.62 3.32,9.8 1.43,3.18 3.17,6.2 5.09,8.83 1.92,2.62 4.04,4.88 6.19,6.31 -1.84,-2.67 -3.51,-5.26 -5.06,-7.95 -1.54,-2.68 -2.95,-5.44 -4.24,-8.27 -1.28,-2.83 -2.43,-5.74 -3.44,-8.71 -1.02,-3 -1.88,-6.03 -2.7,-9.26 z"
         id="path211" />
      <path
         fill="#3c6677"
         d="m 230.08,574.94 -31.11,-13.79 c -5.56,-2.47 -11.06,3.57 -8.08,8.88 l 12.81,22.76 z"
         id="path213" />
      <g
         id="g225">
        <path
           fill="#426976"
           d="M 142.62,727.03"
           id="path215" />
        <path
           fill="#426976"
           d="m 135.73,729.34 c 0.06,-0.01 0.14,-0.01 0.29,-0.01 0.42,0 0.84,-0.02 1.26,-0.05"
           id="path217" />
        <path
           fill="#3c6677"
           d="m 152.03,721.02 c 2.7,-5.43 4.83,-11.39 6.39,-17.33 7.16,-27.38 22.34,-45.56 29.53,-59.69 3.22,-6.33 7.92,-12.33 10.51,-15.42 1.06,-1.27 1,-3.12 -0.12,-4.33 l -10.58,-11.4 c -0.6,-0.64 -1.42,-1.02 -2.3,-1.05 -8.07,-0.28 -50.12,-2.25 -75.03,-12.93 -0.33,-0.14 -0.66,-0.28 -0.99,-0.42 -14.99,-6.3 -26.33,14.01 -13.41,23.87 0.53,0.4 1.03,0.8 1.5,1.2 17.04,14.19 31.57,21.21 38.43,23.53 0.01,0 0.01,0 0.01,0 0,0 -0.01,0.02 -0.02,0.07 0,0.01 0,0.02 0,0.02 -0.44,1.89 -7.08,30.52 -9.72,48.97 -0.86,5.97 -0.56,34.14 8.52,36.58 10.49,2.82 17.28,-11.67 17.28,-11.67 z"
           id="path219" />
        <path
           opacity="0.46"
           fill="#426976"
           d="m 144.15,615.25 c 11.44,2.19 25.86,3.14 37.48,1.4 -13.06,4.04 -30.78,3.04 -44.22,0.09 -12.11,-2.64 -19.03,-5.97 -29.85,-10.94"
           id="path221" />
        <path
           opacity="0.46"
           fill="#426976"
           d="m 173.54,641.51 c -22.21,29.43 -27.09,74.55 -25.44,56.46 1.86,-22.84 14,-46.9 25.44,-56.46 z"
           id="path223" />
      </g>
    </g>
  </g>
</svg>
